{
  "version": 1,
  "dependencies": [
    {
      "source": {
        "git": {
          "remote": "https://github.com/grafana/grafonnet-lib.git",
          "subdir": "grafonnet"
        }
      },
      "version": "6db00c292d3a1c71661fc875f90e0ec7caa538c2",
      "sum": "gF8foHByYcB25jcUOBqP6jxk0OPifQMjPvKY0HaCk6w="
    },
    {
      "source": {
        "git": {
          "remote": "https://github.com/grafana/jsonnet-libs.git",
          "subdir": "grafana-builder"
        }
      },
      "version": "6d4c9de1d249650046875c381417ac4cc5760621",
      "sum": "0KkygBQd/AFzUvVzezE4qF/uDYgrwUXVpZfINBti0oc="
    },
    {
      "source": {
        "git": {
          "remote": "https://github.com/jsonnet-libs/xtd.git",
          "subdir": ""
        }
      },
      "version": "803739029925cf31b0e3c6db2f4aae09b0378a6e",
      "sum": "d/c+3om56mfddeYWrsxOwsrlH008BmX/5NoquXMj0+g="
    },
    {
      "source": {
        "git": {
          "remote": "https://github.com/kubernetes-monitoring/kubernetes-mixin.git",
          "subdir": ""
        }
      },
      "version": "468d4f2c12ac22f003fe9a3aa471c4984a83affe",
      "sum": "PXOEgevj6B66zgGVuOr161CKpjor6D2IRXhybWx5FKA="
    },
    {
      "source": {
        "git": {
          "remote": "https://github.com/yugui/jsonnetunit.git",
          "subdir": "jsonnetunit"
        }
      },
      "version": "6927c58cae7624a00f368b977ccc477d4f74071f",
      "sum": "9FFqqln65hooRF0l6rjICDtnTxUlmDj34+sKMh4sjPI="
    }
  ],
  "legacyImports": false
}
